TidyText Package Project
…
tweets_nick_with_content <- filter(tweets_nick_drop, tweet__full_text != "0") #filters out retweets
tweet_content <- tweets_nick_with_content$tweet__full_text
text_df <- tibble(line = 1:197, text = tweet_content)
text_df <- mutate(text_df, text = tweet_content) #creation of the tibble using the tidyverse function "mutate"

We can use the tidytext function unnest_tokens to split all of the tweets into individual character vectors, each containing one word. Then, we can use the count() function to produce a tibble containing each word and its frequency.

word_count <- text_df %>% unnest_tokens(word, text) %>%  count(word, sort = TRUE)
word_count <- filter(word_count, word != "https") #I found out that the count() function also included parts of hyperlinks as words. So the next three lines filter these out.
word_count <- filter(word_count, word != "t.co")
word_count <- filter(word_count, word != "n")
word_count

## # A tibble: 1,670 x 2
##    word      n
##    <chr> <int>
##  1 the     189
##  2 to      111
##  3 a       106
##  4 of       88
##  5 and      69
##  6 is       66
##  7 i        60
##  8 on       50
##  9 but      47
## 10 in       47
## # ... with 1,660 more rows
…
